[
    {
        "min": {
            "x": 524.4455024032959,
            "y": 57.51650263218128
        },
        "max": {
            "x": 560.4616769665065,
            "y": 151.56481269550622
        },
        "color": 9340275,
        "roughness": 0,
        "offsetDist": 0,
        "order": 1,
        "useAsMapShape": true
    },
    {
        "min": {
            "x": 539.4457312886244,
            "y": 36.516182192721445
        },
        "max": {
            "x": 642.4941786831464,
            "y": 130.56449225604638
        },
        "color": 9340275,
        "roughness": 0,
        "offsetDist": 0,
        "order": 1,
        "useAsMapShape": true
    },
    {
        "min": {
            "x": 560.4616769665065,
            "y": 130.56449225604638
        },
        "max": {
            "x": 622.4938735027084,
            "y": 186.5809719996948
        },
        "color": 9340275,
        "roughness": 0,
        "offsetDist": 0,
        "order": 1,
        "useAsMapShape": true
    },
    {
        "min": {
            "x": 525.4455176623178,
            "y": 58.51651789120317
        },
        "max": {
            "x": 563.4617227435722,
            "y": 150.56479743648433
        },
        "color": 5855577,
        "roughness": 0,
        "offsetDist": 0,
        "order": 1,
        "useAsMapShape": true
    },
    {
        "min": {
            "x": 540.4457465476463,
            "y": 37.516197451743345
        },
        "max": {
            "x": 641.4941634241245,
            "y": 129.54885175860227
        },
        "color": 5855577,
        "roughness": 0,
        "offsetDist": 0,
        "order": 1,
        "useAsMapShape": true
    },
    {
        "min": {
            "x": 561.4616922255284,
            "y": 127.54882124055848
        },
        "max": {
            "x": 621.4938582436865,
            "y": 185.58095674067292
        },
        "color": 5855577,
        "roughness": 0,
        "offsetDist": 0,
        "order": 1,
        "useAsMapShape": true
    },
    {
        "min": {
            "x": 554.461585412375,
            "y": 36.516182192721445
        },
        "max": {
            "x": 574.461890592813,
            "y": 45.51631952391852
        },
        "color": 9340275,
        "roughness": 0,
        "offsetDist": 0,
        "order": 1,
        "useAsMapShape": true
    },
    {
        "min": {
            "x": 607.4780193789578,
            "y": 36.516182192721445
        },
        "max": {
            "x": 627.493949797818,
            "y": 45.51631952391852
        },
        "color": 9340275,
        "roughness": 0,
        "offsetDist": 0,
        "order": 1,
        "useAsMapShape": true
    },
    {
        "min": {
            "x": 555.4616006713969,
            "y": 37.516197451743345
        },
        "max": {
            "x": 573.4618753337911,
            "y": 44.51630426489662
        },
        "color": 5855577,
        "roughness": 0,
        "offsetDist": 0,
        "order": 1,
        "useAsMapShape": true
    },
    {
        "min": {
            "x": 608.4780346379797,
            "y": 37.516197451743345
        },
        "max": {
            "x": 626.4939345387961,
            "y": 44.51630426489662
        },
        "color": 5855577,
        "roughness": 0,
        "offsetDist": 0,
        "order": 1,
        "useAsMapShape": true
    },
    {
        "min": {
            "x": 360.92738231479365,
            "y": 363.2711680781262
        },
        "max": {
            "x": 392.92787060349434,
            "y": 412.27191577019914
        },
        "color": 9340275,
        "roughness": 0,
        "offsetDist": 0,
        "order": 1,
        "useAsMapShape": true
    },
    {
        "min": {
            "x": 361.92739757381554,
            "y": 364.2711833371481
        },
        "max": {
            "x": 391.9278553444724,
            "y": 411.27190051117725
        },
        "color": 5855577,
        "roughness": 0,
        "offsetDist": 0,
        "order": 1,
        "useAsMapShape": true
    },
    {
        "min": {
            "x": 388.9278095674067,
            "y": 380.27142748149845
        },
        "max": {
            "x": 394.9279011215381,
            "y": 386.2715190356298
        },
        "color": 5855577,
        "roughness": 0,
        "offsetDist": 0,
        "order": 1,
        "useAsMapShape": true
    },
    {
        "min": {
            "x": 370.9275349050126,
            "y": 390.52158388647285
        },
        "max": {
            "x": 385.92776379034103,
            "y": 391.0215915159838
        },
        "color": 14145495,
        "roughness": 0,
        "offsetDist": 0,
        "order": 1,
        "useAsMapShape": false
    },
    {
        "min": {
            "x": 370.9275349050126,
            "y": 397.52169069962616
        },
        "max": {
            "x": 385.92776379034103,
            "y": 398.0216983291371
        },
        "color": 14145495,
        "roughness": 0,
        "offsetDist": 0,
        "order": 1,
        "useAsMapShape": false
    },
    {
        "min": {
            "x": 370.9275349050126,
            "y": 404.5217975127794
        },
        "max": {
            "x": 385.92776379034103,
            "y": 405.02180514229036
        },
        "color": 14145495,
        "roughness": 0,
        "offsetDist": 0,
        "order": 1,
        "useAsMapShape": false
    },
    {
        "min": {
            "x": 385.4277561608301,
            "y": 351.27098496986343
        },
        "max": {
            "x": 425.428366521706,
            "y": 411.27190051117725
        },
        "color": 7551000,
        "roughness": 0.05000000074505806,
        "offsetDist": 0.5,
        "order": 0,
        "useAsMapShape": true
    },
    {
        "min": {
            "x": 393.6310063324941,
            "y": 163.84625009536887
        },
        "max": {
            "x": 435.64727244983595,
            "y": 193.862333104448
        },
        "color": 6460706,
        "roughness": 0.05000000074505806,
        "offsetDist": 0.25,
        "order": 0,
        "useAsMapShape": true
    }
]