{
  "bullet_mp5": 1,
  "bullet_ak47": 2,
  "bullet_water": 3,
  "bullet_scar": 4,
  "bullet_an94": 5,
  "bullet_groza": 6,
  "bullet_grozas": 7,
  "bullet_model94": 8,
  "bullet_blr": 9,
  "bullet_mosin": 10,
  "bullet_sv98": 11,
  "bullet_awc": 12,
  "bullet_scarssr": 13,
  "bullet_m39": 14,
  "bullet_svd": 15,
  "bullet_garand": 16,
  "bullet_buckshot": 17,
  "bullet_flechette": 18,
  "bullet_frag": 19,
  "bullet_slug": 20,
  "bullet_birdshot": 21,
  "bullet_m9": 22,
  "bullet_m9_cursed": 23,
  "bullet_m93r": 24,
  "bullet_p30l": 25,
  "bullet_ot38": 26,
  "bullet_ots38": 27,
  "bullet_colt45": 28,
  "bullet_m1911": 29,
  "bullet_m1a1": 30,
  "bullet_mkg45": 31,
  "bullet_deagle": 32,
  "bullet_lasr": 33,
  "bullet_rainbow": 34,
  "bullet_mac10": 35,
  "bullet_ump9": 36,
  "bullet_vector": 37,
  "bullet_vector45": 38,
  "bullet_scorpion": 39,
  "bullet_vss": 40,
  "bullet_dp28": 41,
  "bullet_bar": 42,
  "bullet_pkp": 43,
  "bullet_pkm": 44,
  "bullet_glock": 45,
  "bullet_famas": 46,
  "bullet_hk416": 47,
  "bullet_m4a1": 48,
  "bullet_mk12": 49,
  "bullet_l86": 50,
  "bullet_m249": 51,
  "bullet_qbb97": 52,
  "bullet_scout": 53,
  "bullet_flare": 54,
  "bullet_potato": 55,
  "bullet_m9A17": 56,
  "bullet_bugle": 57,
  "bullet_heart": 58,
  "bullet_m79": 59,
  "shrapnel_barrel": 60,
  "shrapnel_stove": 61,
  "shrapnel_frag": 62,
  "shrapnel_strobe": 63,
  "shrapnel_usas": 64,
  "shrapnel_mirv_mini": 65,
  "shrapnel_bomb_iron": 66,
  "bullet_m134": 67,
  "shrapnel_skitternade": 68,
  "bullet_mp5_bonus": 69,
  "bullet_m9_bonus": 70,
  "bullet_mac10_bonus": 71,
  "bullet_ump9_bonus": 72,
  "bullet_vector_bonus": 73,
  "bullet_glock_bonus": 74,
  "bullet_m93r_bonus": 75,
  "bullet_scorpion_bonus": 76,
  "bullet_vss_bonus": 77,
  "bullet_p30l_bonus": 78,
  "crosshair_default": 79,
  "crosshair_001": 80,
  "crosshair_005": 81,
  "crosshair_007": 82,
  "crosshair_010": 83,
  "crosshair_022": 84,
  "crosshair_027": 85,
  "crosshair_038": 86,
  "crosshair_040": 87,
  "crosshair_045": 88,
  "crosshair_051": 89,
  "crosshair_064": 90,
  "crosshair_080": 91,
  "crosshair_086": 92,
  "crosshair_094": 93,
  "crosshair_098": 94,
  "crosshair_101": 95,
  "crosshair_102": 96,
  "crosshair_109": 97,
  "crosshair_118": 98,
  "crosshair_124": 99,
  "crosshair_125": 100,
  "crosshair_136": 101,
  "crosshair_158": 102,
  "crosshair_160": 103,
  "crosshair_173": 104,
  "crosshair_176": 105,
  "crosshair_177": 106,
  "crosshair_181": 107,
  "crosshair_184": 108,
  "heal_basic": 109,
  "heal_heart": 110,
  "heal_moon": 111,
  "heal_tomoe": 112,
  "heal_hexa": 113,
  "heal_patch": 114,
  "heal_paramedicine": 115,
  "heal_lotus": 116,
  "heal_syringe": 117,
  "heal_diamond": 118,
  "heal_peace": 119,
  "heal_santa_boots": 120,
  "heal_santa_hat": 121,
  "heal_simply_lucky": 122,
  "heal_canceller": 123,
  "heal_sickle": 124,
  "heal_frostiest": 125,
  "heal_safe_zone": 126,
  "heal_basics": 127,
  "heal_double_barrier": 128,
  "heal_prsmd": 129,
  "heal_family_hut": 130,
  "heal_pacing_pack": 131,
  "heal_ocean_hearing": 132,
  "heal_bold_boost": 133,
  "heal_milans_feathers": 134,
  "heal_one-mist-call": 135,
  "heal_ring-it-on": 136,
  "heal_frayed-knot": 137,
  "boost_basic": 138,
  "boost_star": 139,
  "boost_naturalize": 140,
  "boost_shuriken": 141,
  "boost_energel": 142,
  "boost_sugar": 143,
  "boost_gear": 144,
  "boost_atomic": 145,
  "boost_firestorm": 146,
  "boost_drumstick": 147,
  "boost_casing": 148,
  "boost_bubble": 149,
  "boost_speed": 150,
  "boost_bloodbath": 151,
  "boost_holly_ivy": 152,
  "boost_rudolph": 153,
  "boost_ch_star": 154,
  "boost_just_dial_star": 155,
  "boost_three_ways": 156,
  "boost_slacker": 157,
  "boost_hidden_village": 158,
  "boost_perfect_fit": 159,
  "boost_spinner": 160,
  "boost_to_the_bone": 161,
  "boost_hunting_zone": 162,
  "boost_tuskies": 163,
  "boost_bus_worms": 164,
  "boost_weird_blob": 165,
  "boost_tun-pattern": 166,
  "boost_ruppert-stone": 167,
  "emote_medical": 168,
  "emote_ammo": 169,
  "emote_ammo9mm": 170,
  "emote_ammo12gauge": 171,
  "emote_ammo762mm": 172,
  "emote_ammo556mm": 173,
  "emote_ammo50ae": 174,
  "emote_ammo308sub": 175,
  "emote_ammoflare": 176,
  "emote_ammo45acp": 177,
  "emote_loot": 178,
  "emote_trick_nothing": 179,
  "emote_trick_size": 180,
  "emote_trick_m9": 181,
  "emote_trick_chatty": 182,
  "emote_trick_drain": 183,
  "emote_treat_9mm": 184,
  "emote_treat_12g": 185,
  "emote_treat_556": 186,
  "emote_treat_762": 187,
  "emote_treat_super": 188,
  "emote_bugle_inspiration_red": 189,
  "emote_bugle_final_red": 190,
  "emote_bugle_inspiration_blue": 191,
  "emote_bugle_final_blue": 192,
  "emote_thumbsup": 193,
  "emote_sadface": 194,
  "emote_happyface": 195,
  "emote_surviv": 196,
  "emote_gg": 197,
  "emote_question": 198,
  "emote_tombstone": 199,
  "emote_joyface": 200,
  "emote_sobface": 201,
  "emote_thinkingface": 202,
  "emote_flagus": 203,
  "emote_flagthailand": 204,
  "emote_flaggermany": 205,
  "emote_flagfrance": 206,
  "emote_flagsouthkorea": 207,
  "emote_flagbrazil": 208,
  "emote_flagcanada": 209,
  "emote_flagspain": 210,
  "emote_flagrussia": 211,
  "emote_flagmexico": 212,
  "emote_flagpoland": 213,
  "emote_flaguk": 214,
  "emote_flagcolombia": 215,
  "emote_flagukraine": 216,
  "emote_flagturkey": 217,
  "emote_flagphilippines": 218,
  "emote_flagczechia": 219,
  "emote_flagperu": 220,
  "emote_flagaustria": 221,
  "emote_flagargentina": 222,
  "emote_flagjapan": 223,
  "emote_flagvenezuela": 224,
  "emote_flagvietnam": 225,
  "emote_flagswitzerland": 226,
  "emote_flagnetherlands": 227,
  "emote_flagchina": 228,
  "emote_flagtaiwan": 229,
  "emote_flagchile": 230,
  "emote_flagaustralia": 231,
  "emote_flagdenmark": 232,
  "emote_flagitaly": 233,
  "emote_flagsweden": 234,
  "emote_flagecuador": 235,
  "emote_flagslovakia": 236,
  "emote_flaghungary": 237,
  "emote_flagromania": 238,
  "emote_flaghongkong": 239,
  "emote_flagindonesia": 240,
  "emote_flagfinland": 241,
  "emote_flagnorway": 242,
  "emote_heart": 243,
  "emote_sleepy": 244,
  "emote_flex": 245,
  "emote_angryface": 246,
  "emote_upsidedownface": 247,
  "emote_teabag": 248,
  "emote_alienface": 249,
  "emote_flagbelarus": 250,
  "emote_flagbelgium": 251,
  "emote_flagkazakhstan": 252,
  "emote_egg": 253,
  "emote_police": 254,
  "emote_dabface": 255,
  "emote_flagmalaysia": 256,
  "emote_flagnewzealand": 257,
  "emote_logosurviv": 258,
  "emote_logoegg": 259,
  "emote_logoswine": 260,
  "emote_logohydra": 261,
  "emote_logostorm": 262,
  "emote_flaghonduras": 263,
  "emote_logocaduceus": 264,
  "emote_impface": 265,
  "emote_monocleface": 266,
  "emote_sunglassface": 267,
  "emote_headshotface": 268,
  "emote_potato": 269,
  "emote_leek": 270,
  "emote_eggplant": 271,
  "emote_baguette": 272,
  "emote_chick": 273,
  "emote_flagbolivia": 274,
  "emote_flagcroatia": 275,
  "emote_flagindia": 276,
  "emote_flagisrael": 277,
  "emote_flaggeorgia": 278,
  "emote_flaggreece": 279,
  "emote_flagguatemala": 280,
  "emote_flagportugal": 281,
  "emote_flagserbia": 282,
  "emote_flagsingapore": 283,
  "emote_flagtrinidad": 284,
  "emote_flaguruguay": 285,
  "emote_logoconch": 286,
  "emote_pineapple": 287,
  "emote_coconut": 288,
  "emote_crab": 289,
  "emote_whale": 290,
  "emote_logometeor": 291,
  "emote_salt": 292,
  "emote_disappointface": 293,
  "emote_logocrossing": 294,
  "emote_fish": 295,
  "emote_campfire": 296,
  "emote_chickendinner": 297,
  "emote_cattle": 298,
  "emote_icecream": 299,
  "emote_cupcake": 300,
  "emote_donut": 301,
  "emote_logohatchet": 302,
  "emote_acorn": 303,
  "emote_trunk": 304,
  "emote_forest": 305,
  "emote_pumpkin": 306,
  "emote_candycorn": 307,
  "emote_pilgrimhat": 308,
  "emote_turkeyanimal": 309,
  "emote_heartface": 310,
  "emote_logochrysanthemum": 311,
  "emote_santahat": 312,
  "emote_snowman": 313,
  "emote_snowflake": 314,
  "emote_flagmorocco": 315,
  "emote_flagestonia": 316,
  "emote_flagalgeria": 317,
  "emote_flagegypt": 318,
  "emote_flagazerbaijan": 319,
  "emote_flagalbania": 320,
  "emote_flaglithuania": 321,
  "emote_flaglatvia": 322,
  "emote_flaguae": 323,
  "emote_flagdominicanrepublic": 324,
  "emote_logocloud": 325,
  "emote_ghost_base": 326,
  "emote_bandagedface": 327,
  "emote_picassoface": 328,
  "emote_pooface": 329,
  "emote_ok": 330,
  "emote_rainbow": 331,
  "emote_logotwins": 332,
  "emote_oof": 333,
  "emote_shockface": 334,
  "emote_skull": 335,
  "emote_trollface": 336,
  "emote_greedy": 337,
  "emote_easy": 338,
  "emote_lies": 339,
  "emote_sweaty": 340,
  "emote_flushed": 341,
  "emote_deadface": 342,
  "emote_starstruck": 343,
  "emote_panned": 344,
  "emote_happyghost": 345,
  "emote_shroomcloud": 346,
  "emote_fabulorn": 347,
  "emote_shur": 348,
  "emote_its_ok": 349,
  "emote_boffy": 350,
  "emote_relief": 351,
  "emote_eye": 352,
  "emote_frustration": 353,
  "emote_qq": 354,
  "emote_sushi_roll": 355,
  "emote_pay_respects": 356,
  "emote_rip": 357,
  "emote_puke": 358,
  "emote_pwn": 359,
  "emote_nutz": 360,
  "emote_bagged": 361,
  "emote_too_close": 362,
  "emote_friend_ghost": 363,
  "emote_mr_sockey": 364,
  "emote_hi5": 365,
  "emote_gogo": 366,
  "emote_angry_blob": 367,
  "emote_nooblet": 368,
  "emote_rainy_day": 369,
  "emote_tiny_turtle": 370,
  "emote_wait": 371,
  "emote_taunty": 372,
  "emote_glasses": 373,
  "emote_pills": 374,
  "emote_chimpion": 375,
  "emote_golden_bullet": 376,
  "emote_puke_rainbow": 377,
  "emote_wth": 378,
  "emote_lootloot": 379,
  "emote_buuurn": 380,
  "emote_rawr": 381,
  "emote_clown": 382,
  "emote_oldrespects": 383,
  "emote_lootbones": 384,
  "emote_peacesign": 385,
  "emote_rad": 386,
  "emote_tonguesout": 387,
  "emote_i-heart-you": 388,
  "emote_send-some-potis": 389,
  "emote_radical-ray": 390,
  "emote_you-invader": 391,
  "emote_yeehaw": 392,
  "emote_dynaboom": 393,
  "emote_horsin-zone": 394,
  "emote_was-a-lovely-cow": 395,
  "emote_new-in-town": 396,
  "emote_prickly-business": 397,
  "emote_neutral": 398,
  "emote_chickend": 399,
  "explosion_frag": 400,
  "explosion_smoke": 401,
  "explosion_strobe": 402,
  "explosion_barrel": 403,
  "explosion_stove": 404,
  "explosion_usas": 405,
  "explosion_rounds": 406,
  "explosion_rounds_sg": 407,
  "explosion_mirv": 408,
  "explosion_mirv_mini": 409,
  "explosion_martyr_nade": 410,
  "explosion_snowball": 411,
  "explosion_snowball_heavy": 412,
  "explosion_potato": 413,
  "explosion_potato_heavy": 414,
  "explosion_potato_cannonball": 415,
  "explosion_rainbow_projectile": 416,
  "explosion_heart_cannonball": 417,
  "explosion_potato_smgshot": 418,
  "explosion_fire": 419,
  "explosion_bomb_iron": 420,
  "explosion_motherShip": 421,
  "lightning_explosion": 422,
  "explosion_heart_frag": 423,
  "explosion_40mm_granade": 424,
  "explosion_water_balloon": 425,
  "explosion_skitternade": 426,
  "explosion_antiFire": 427,
  "9mm": 428,
  "762mm": 429,
  "556mm": 430,
  "12gauge": 431,
  "50AE": 432,
  "308sub": 433,
  "flare": 434,
  "45acp": 435,
  "potato_ammo": 436,
  "heart_ammo": 437,
  "rainbow_ammo": 438,
  "40mm": 439,
  "bandage": 440,
  "healthkit": 441,
  "soda": 442,
  "painkiller": 443,
  "flask": 444,
  "chocolateBox": 445,
  "bottle": 446,
  "gunchilada": 447,
  "watermelon": 448,
  "nitroLace": 449,
  "pulseBox": 450,
  "backpack00": 451,
  "backpack01": 452,
  "backpack02": 453,
  "backpack03": 454,
  "helmet01": 455,
  "helmet02": 456,
  "helmet03": 457,
  "helmet04": 458,
  "chest01": 459,
  "chest02": 460,
  "chest03": 461,
  "chest04": 462,
  "1xscope": 463,
  "2xscope": 464,
  "4xscope": 465,
  "8xscope": 466,
  "15xscope": 467,
  "helmet03_leader": 468,
  "helmet03_forest": 469,
  "helmet03_moon": 470,
  "helmet03_lt": 471,
  "helmet03_lt_aged": 472,
  "helmet03_potato": 473,
  "helmet03_marksman": 474,
  "helmet03_recon": 475,
  "helmet03_grenadier": 476,
  "helmet03_bugler": 477,
  "helmet04_medic": 478,
  "helmet04_last_man_red": 479,
  "helmet04_last_man_blue": 480,
  "helmet04_leader": 481,
  "mp5": 482,
  "mac10": 483,
  "ump9": 484,
  "vector": 485,
  "vector45": 486,
  "scorpion": 487,
  "vss": 488,
  "famas": 489,
  "hk416": 490,
  "m4a1": 491,
  "mk12": 492,
  "l86": 493,
  "m249": 494,
  "qbb97": 495,
  "scout_elite": 496,
  "ak47": 497,
  "waterGun": 498,
  "scar": 499,
  "scarssr": 500,
  "an94": 501,
  "groza": 502,
  "grozas": 503,
  "dp28": 504,
  "bar": 505,
  "pkp": 506,
  "pkm": 507,
  "model94": 508,
  "mkg45": 509,
  "blr": 510,
  "mosin": 511,
  "sv98": 512,
  "awc": 513,
  "m39": 514,
  "svd": 515,
  "garand": 516,
  "m870": 517,
  "hawk12g": 518,
  "m1100": 519,
  "mp220": 520,
  "saiga": 521,
  "spas12": 522,
  "m1014": 523,
  "usas": 524,
  "m9": 525,
  "m9_dual": 526,
  "m9_cursed": 527,
  "m93r": 528,
  "m93r_dual": 529,
  "glock": 530,
  "glock_dual": 531,
  "p30l": 532,
  "p30l_dual": 533,
  "ot38": 534,
  "ot38_dual": 535,
  "ots38": 536,
  "ots38_dual": 537,
  "colt45": 538,
  "colt45_dual": 539,
  "m1911": 540,
  "m1911_dual": 541,
  "m1a1": 542,
  "rainbow_blaster": 543,
  "deagle": 544,
  "lasr_gun": 545,
  "lasr_gun_dual": 546,
  "deagle_dual": 547,
  "flare_gun": 548,
  "flare_gun_dual": 549,
  "potato_cannon": 550,
  "potato_smg": 551,
  "m9A17": 552,
  "bugle": 553,
  "heart_cannon": 554,
  "m134": 555,
  "m79": 556,
  "fists": 557,
  "knuckles": 558,
  "karambit": 559,
  "bayonet": 560,
  "huntsman": 561,
  "bowie": 562,
  "machete": 563,
  "saw": 564,
  "woodaxe": 565,
  "fireaxe": 566,
  "icePick": 567,
  "lasr_swrd": 568,
  "lasr_swrd_02": 569,
  "lasr_swrd_03": 570,
  "katana": 571,
  "naginata": 572,
  "stonehammer": 573,
  "hook": 574,
  "pan": 575,
  "spade": 576,
  "crowbar": 577,
  "red_gloves": 578,
  "feral_gloves": 579,
  "crab_gloves": 580,
  "fist_split": 581,
  "fist_blueVelvet": 582,
  "fist_frostpunch": 583,
  "fist_immolate": 584,
  "fist_bulletbills": 585,
  "fist_moss": 586,
  "fist_blackholes": 587,
  "fist_rainbowhands": 588,
  "fist_darklets": 589,
  "fist_scifi": 590,
  "fist_poke": 591,
  "fist_paws": 592,
  "fist_dinoclaws": 593,
  "fist_leaf": 594,
  "fist_ranger": 595,
  "fist_linedUp": 596,
  "fist_lit": 597,
  "fist_gift_punch": 598,
  "fist_ember": 599,
  "fist_santa": 600,
  "fist_purptog": 601,
  "fist_golden_lobster": 602,
  "fist_pineFury": 603,
  "fist_dreidel": 604,
  "fist_bePresent": 605,
  "fist_tropicana": 606,
  "fist_spongeguy": 607,
  "fist_rafflesia": 608,
  "fist_golddrops": 609,
  "fist_grizzly": 610,
  "fist_coco_nut": 611,
  "fist_101Spots": 612,
  "fist_atnet": 613,
  "fist_vitaminc": 614,
  "fist_marblerun2": 615,
  "fist_beachballin": 616,
  "fist_fritterpunch": 617,
  "fist_dishsoap": 618,
  "fist_watermelon": 619,
  "fist_bloody": 620,
  "fist_makeachoice": 621,
  "fist_bologna": 622,
  "fist_flashy": 623,
  "fist_tigerseed": 624,
  "fist_paddle": 625,
  "fist_inkybusiness": 626,
  "fist_theotherpong": 627,
  "fist_getdowntonite": 628,
  "fist_milestones": 629,
  "fist_washilamps": 630,
  "fist_ghostpoke": 631,
  "fist_condimentium": 632,
  "fist_shinyjello": 633,
  "fist_graphbars": 634,
  "fist_purpleshutter": 635,
  "fist_orangeandlime": 636,
  "fist_nopinenogain": 637,
  "fist_bullseye": 638,
  "fist_flamingnucleus": 639,
  "fist_meteornite": 640,
  "fist_orangemintstones": 641,
  "fist_firsttool": 642,
  "fist_stonedgy": 643,
  "fist_bonkbonk": 644,
  "fist_fuzzyhooves": 645,
  "fist_retrhorizon": 646,
  "fist_pixeldots": 647,
  "fist_ranchchips": 648,
  "fist_lolitapop": 649,
  "fist_dizzielocs": 650,
  "fist_q-fist": 651,
  "fist_d-punch-pad": 652,
  "fist_developtheserolls": 653,
  "fist_squareycherry": 654,
  "fist_tawget": 655,
  "fist_boogiestripes": 656,
  "fist_garbanjo": 657,
  "fist_wreckedangle": 658,
  "fist_woodyallan": 659,
  "fist_cattlebattle": 660,
  "fist_badmitten": 661,
  "fist_milkshaked": 662,
  "fist_horsepower": 663,
  "fist_upandatom": 664,
  "knuckles_rusted": 665,
  "knuckles_heroic": 666,
  "karambit_rugged": 667,
  "karambit_prismatic": 668,
  "karambit_drowned": 669,
  "bayonet_rugged": 670,
  "bayonet_woodland": 671,
  "huntsman_rugged": 672,
  "huntsman_burnished": 673,
  "bowie_vintage": 674,
  "bowie_frontier": 675,
  "machete_taiga": 676,
  "kukri_trad": 677,
  "bonesaw_rusted": 678,
  "woodaxe_bloody": 679,
  "katana_rusted": 680,
  "katana_orchid": 681,
  "sledgehammer": 682,
  "crowbar_scout": 683,
  "crowbar_recon": 684,
  "kukri_sniper": 685,
  "bonesaw_healer": 686,
  "katana_demo": 687,
  "spade_assault": 688,
  "warhammer_tank": 689,
  "outfitBase": 690,
  "outfitDemo": 691,
  "outfitTank": 692,
  "outfitMedic": 693,
  "outfitScout": 694,
  "outfitSniper": 695,
  "outfitAssault": 696,
  "outfitWhiteDay": 697,
  "outfitTurkey": 698,
  "outfitWinter": 699,
  "outfitGeometric": 700,
  "outfitMilitary": 701,
  "outfitDev": 702,
  "outfitMod": 703,
  "outfitWheat": 704,
  "outfitNoir": 705,
  "outfitRedLeaderAged": 706,
  "outfitBlueLeaderAged": 707,
  "outfitRedLeader": 708,
  "outfitBlueLeader": 709,
  "outfitSpetsnaz": 710,
  "outfitWoodsCloak": 711,
  "outfitElf": 712,
  "outfitImperial": 713,
  "outfitLumber": 714,
  "outfitVerde": 715,
  "outfitPineapple": 716,
  "outfitTarkhany": 717,
  "outfitWaterElem": 718,
  "outfitHeaven": 719,
  "outfitMeteor": 720,
  "outfitIslander": 721,
  "outfitAqua": 722,
  "outfitCoral": 723,
  "outfitKhaki": 724,
  "outfitParma": 725,
  "outfitParmaPrestige": 726,
  "outfitCasanova": 727,
  "outfitPrisoner": 728,
  "outfitJester": 729,
  "outfitWoodland": 730,
  "outfitRoyalFortune": 731,
  "outfitKeyLime": 732,
  "outfitCobaltShell": 733,
  "outfitCarbonFiber": 734,
  "outfitDarkGloves": 735,
  "outfitDarkShirt": 736,
  "outfitGhillie": 737,
  "outfitDesertCamo": 738,
  "outfitCamo": 739,
  "outfitRed": 740,
  "outfitWhite": 741,
  "outfitSunset": 742,
  "outfitDeepPurple": 743,
  "outfitSplotchfest": 744,
  "outfitClaymore": 745,
  "outfitChromesis": 746,
  "outfitFragtastic": 747,
  "outfitRusticSands": 748,
  "outfitWaves": 749,
  "outfitUrbanCamo": 750,
  "outfitNeonEyesore": 751,
  "outfitGiraffe": 752,
  "outfitCow": 753,
  "outfitMojo": 754,
  "outfitZebra": 755,
  "outfitAstronaut": 756,
  "outfitDiamondy": 757,
  "outfitMecha": 758,
  "outfitFireball": 759,
  "outfitBarrel": 760,
  "outfitWoodBarrel": 761,
  "outfitStone": 762,
  "outfitTree": 763,
  "outfitTreeSpooky": 764,
  "outfitStump": 765,
  "outfitBush": 766,
  "outfitLeafPile": 767,
  "outfitCrate": 768,
  "outfitTable": 769,
  "outfitSoviet": 770,
  "outfitAirdrop": 771,
  "outfitOven": 772,
  "outfitRefrigerator": 773,
  "outfitVending": 774,
  "outfitPumpkin": 775,
  "outfitWoodpile": 776,
  "outfitToilet": 777,
  "outfitBushRiver": 778,
  "outfitCrab": 779,
  "outfitStumpAxe": 780,
  "outfitSpeedo": 781,
  "outfitBlueLava": 782,
  "outfitInfernoCamo": 783,
  "outfitSpeedoSunburn": 784,
  "outfitMango": 785,
  "outfitParrot": 786,
  "outfitCrusader": 787,
  "outfitLasrDisk": 788,
  "outfitBeachCamo": 789,
  "outfitForest": 790,
  "outfitGingerbread": 791,
  "outfitVenom": 792,
  "outfitBlueMecha": 793,
  "outfitEventHorizon": 794,
  "outfitGrinch": 795,
  "outfitSnowman": 796,
  "outfitChritstmasTree": 797,
  "outfitYinYang": 798,
  "outfitTiki": 799,
  "outfitMachoLucha2": 800,
  "outfitCalaca": 801,
  "outfitSortaBlue": 802,
  "outfitMellow": 803,
  "outfitBengal": 804,
  "outfitUnderbrush": 805,
  "outfitMagmatic": 806,
  "outfitPurpleMecha": 807,
  "outfitRosePetals": 808,
  "outfitViper": 809,
  "outfitFullCircle": 810,
  "outfitPleasingPart": 811,
  "outfitItJustMist": 812,
  "outfitOneInAMelon": 813,
  "outfitColdestEdge": 814,
  "outfitRetroSunset": 815,
  "outfitBoet": 816,
  "outfitOldKumo": 817,
  "outfitPanteraOnca": 818,
  "outfitTipTheScales": 819,
  "outfitAvocadoh": 820,
  "outfitEyes-T": 821,
  "outfitEggnite": 822,
  "outfitSunburn": 823,
  "outfitElectricIce": 824,
  "outfitBubblegum": 825,
  "outfitGaudisque": 826,
  "outfitMicro-wave": 827,
  "outfitStarflag": 828,
  "outfitGridflag": 829,
  "outfitToxicBarrel": 830,
  "outfitBlueZone": 831,
  "outfitBraaains": 832,
  "outfitStumpd": 833,
  "outfitDigiturt": 834,
  "outfitMelonWater": 835,
  "outfitStarryNight": 836,
  "outfitStreetArt": 837,
  "outfitNorseCode": 838,
  "outfitILavaYou": 839,
  "outfitKingGalaxy": 840,
  "outfitCosmicBlue": 841,
  "outfitJuleVerny": 842,
  "outfitGhoulFire": 843,
  "outfitDragonTails": 844,
  "outfitHotMagma": 845,
  "outfitLustrousPaladin": 846,
  "outfitVillageNinja": 847,
  "outfitAhoy": 848,
  "outfitHowPita-ful": 849,
  "outfitChewieCheese": 850,
  "outfitH2Oh": 851,
  "outfitMug-nificient": 852,
  "outfitHopelessRamen-tic": 853,
  "outfitSoapPods": 854,
  "outfitCatchemOl": 855,
  "outfitSwords": 856,
  "outfitScarween": 857,
  "outfitTomatoandCheese": 858,
  "outfitColorPalette": 859,
  "outfitTurtleSweater": 860,
  "outfitChromaticCTR": 861,
  "outfitBuckTeeth": 862,
  "outfitChemis-tree": 863,
  "outfitPoinsetee": 864,
  "outfitSnowyClaus": 865,
  "outfitCamoDeer": 866,
  "outfitWoodFire": 867,
  "outfitBluntRazor": 868,
  "outfitHoldinHide": 869,
  "outfitTribeShield": 870,
  "outfitPhoebonachi": 871,
  "outfitRuppert": 872,
  "outfitTribeMask": 873,
  "outfitTirelessly": 874,
  "outfitBrontoChop": 875,
  "outfitDisasteroid": 876,
  "outfitGreenTeaRex": 877,
  "outfitMultiTusking": 878,
  "outfitSunriseBlvd": 879,
  "outfitIntoTheGrid": 880,
  "outfitToontooine": 881,
  "outfitIts-me-coin": 882,
  "outfitTunelSun": 883,
  "outfitHue-dini": 884,
  "outfitBitplosion": 885,
  "outfitSpaceSnout": 886,
  "outfitBombyman": 887,
  "outfitIdDie4U": 888,
  "outfitMaxAttack": 889,
  "outfitNeckNapkin": 890,
  "outfitHowl-o-Days": 891,
  "outfitTheySeeMeRolling": 892,
  "outfitCaptnCactus": 893,
  "outfitGoodFeather": 894,
  "outfitNachoHat": 895,
  "outfitSuppaPoncho": 896,
  "outfitBronco-saurus": 897,
  "outfitRanchDressing": 898,
  "outfitDe-ranged": 899,
  "outfitSirLoin": 900,
  "outfitMoosli": 901,
  "outfitPreyDinner": 902,
  "quest_kills": 903,
  "quest_survived": 904,
  "quest_damage_9mm": 905,
  "quest_damage_762mm": 906,
  "quest_damage_556mm": 907,
  "quest_damage_12gauge": 908,
  "quest_damage_grenade": 909,
  "quest_damage_melee": 910,
  "quest_heal": 911,
  "quest_boost": 912,
  "quest_crates": 913,
  "quest_toilets": 914,
  "quest_furniture": 915,
  "quest_barrels": 916,
  "quest_lockers": 917,
  "quest_pots": 918,
  "quest_vending": 919,
  "quest_top_solo": 920,
  "quest_top_squad": 921,
  "quest_kills_hard": 922,
  "quest_damage": 923,
  "quest_damage_hard": 924,
  "quest_airdrop": 925,
  "quest_club_kills": 926,
  "leadership": 927,
  "firepower": 928,
  "snowfox": 929,
  "leprechaun": 930,
  "polarbear": 931,
  "gotw": 932,
  "windwalk": 933,
  "rare_potato": 934,
  "aoe_heal": 935,
  "endless_ammo": 936,
  "steelskin": 937,
  "splinter": 938,
  "small_arms": 939,
  "takedown": 940,
  "field_medic": 941,
  "tree_climbing": 942,
  "scavenger": 943,
  "scavenger_adv": 944,
  "hunted": 945,
  "chambered": 946,
  "martyrdom": 947,
  "targeting": 948,
  "bonus_45": 949,
  "broken_arrow": 950,
  "fabricate": 951,
  "self_revive": 952,
  "bonus_9mm": 953,
  "flak_jacket": 954,
  "explosive": 955,
  "bonus_assault": 956,
  "inspiration": 957,
  "final_bugle": 958,
  "halloween_mystery": 959,
  "trick_nothing": 960,
  "trick_size": 961,
  "trick_m9": 962,
  "trick_chatty": 963,
  "trick_drain": 964,
  "treat_9mm": 965,
  "treat_12g": 966,
  "treat_556": 967,
  "treat_762": 968,
  "treat_super": 969,
  "turkey_shoot": 970,
  "cupid": 971,
  "closer": 972,
  "phoenix": 973,
  "pyro": 974,
  "pass_survivr1": 975,
  "pass_survivr2": 976,
  "pass_survivr3": 977,
  "pass_survivr4": 978,
  "pass_survivr5": 979,
  "pass_survivr6": 980,
  "pass_survivr7": 981,
  "pass_survivr8": 982,
  "pass_survivr9": 983,
  "pass_survivr10": 984,
  "pass_survivr11": 985,
  "pass_survivr12": 986,
  "ping_danger": 987,
  "ping_coming": 988,
  "ping_help": 989,
  "ping_airdrop": 990,
  "ping_airstrike": 991,
  "ping_woodsking": 992,
  "ping_unlock": 993,
  "pinata_01": 219,
  "motherShip": 84,
  "skitter": 85,
  "leader": 997,
  "lieutenant": 998,
  "medic": 999,
  "marksman": 1000,
  "recon": 1001,
  "grenadier": 1002,
  "bugler": 1003,
  "last_man": 1004,
  "woods_king": 1005,
  "kill_leader": 1006,
  "the_hunted": 1007,
  "healer": 1008,
  "tank": 1009,
  "sniper": 1010,
  "scout": 1011,
  "demo": 1012,
  "assault": 1013,
  "frag": 1014,
  "mirv": 1015,
  "mirv_mini": 1016,
  "martyr_nade": 1017,
  "smoke": 1018,
  "strobe": 1019,
  "snowball": 1020,
  "water_balloon": 1021,
  "snowball_heavy": 1022,
  "potato": 1023,
  "potato_heavy": 1024,
  "potato_cannonball": 1025,
  "potato_smgshot": 1026,
  "fire_shot": 1027,
  "rainbow_projectile": 1028,
  "heart_cannonball": 1029,
  "bomb_iron": 1030,
  "motherShip_cannon_shot": 1031,
  "lightning": 1032,
  "heart_frag": 1033,
  "40mm_granade": 1034,
  "mine": 1035,
  "skitternade": 1036,
  "antiFire": 1037,
  "unlock_default": 1038,
  "unlock_new_account": 1039,
  "xp_10": 1040,
  "xp_25": 1041,
  "xp_100": 1042,
  "xp_book_tallow": 1043,
  "xp_book_greene": 1044,
  "xp_book_parma": 1045,
  "xp_book_nevelskoy": 1046,
  "xp_book_rinzo": 1047,
  "xp_book_kuga": 1048,
  "xp_glasses": 1049,
  "xp_compass": 1050,
  "xp_stump": 1051,
  "xp_bone": 1052,
  "xp_donut": 1053,
  "regularDeath": 1054,
  "turkeyFeathersDeath": 1055,
  "cupidDeath": 1056,
  "blackHoleDeath": 1057,
  "bloodExplosionDeath": 1058,
  "magicSparkDeath": 1059,
  "toonBlastDeath": 1060,
  "billionaireDeath": 1061,
  "sparklyDeath": 1062,
  "confettiDeath": 1063,
  "potatoBlastDeath": 1064,
  "coopRaidDeath": 1065,
  "peelOutDeath": 1066,
  "heartyBreakfastDeath": 1067,
  "yoursTrulyDeath": 1068,
  "nerveGasDeath": 1069,
  "boltsNNutsDeath": 1070,
  "pizzasDeath": 1071,
  "orangeSlimDeath": 1072,
  "buildinBasesDeath": 1073,
  "puzzledDeath": 1074,
  "espressoDeath": 1075,
  "constructionDeath": 1076,
  "cheeseBombDeath": 1077,
  "newDeathsEveDeath": 1078,
  "comicFxDeath": 1079,
  "waterBendedDeath": 1080,
  "basicPuffDeath": 1081,
  "aboutToRainDeath": 1082,
  "cavemanApparelDeath": 1083,
  "diggingSiteDeath": 1084,
  "chocolatarDeath": 1085,
  "pixie-dustDeath": 1086,
  "squiggliesDeath": 1087,
  "cotton-explosionDeath": 1088,
  "serving-just-iceDeath": 1089,
  "ore-worksDeath": 1090,
  "spring-waterDeath": 1091,
  "last-doorDeath": 1092,
  "loot_box_01": 1093,
  "loot_box_02": 1094,
  "loot_box_03": 1095,
  "limited_loot_box_pre_vacation_2020": 1096,
  "limited_loot_box_post_xmas_2020": 1097,
  "limited_loot_box_post_xmas_2021": 1098,
  "season_1_items": 1099,
  "parma_crate_s7": 1100,
  "hydra_crate_s7": 1101,
  "rdctd_crate_s7": 1102,
  "limited_pre_vacation_crate_2020": 1103,
  "limited_post_xmas_crate_2020": 1104,
  "limited_post_xmas_crate_2021": 1105,
  "stim-1": 1106,
  "stim-2": 1107,
  "stim-3": 1108,
  "prices_1": 1109,
  "prices_2": 1110,
  "fusion_motherShip": 1111,
  "base_motherShip": 1112,
  "load_motherShip": 1113,
  "skitter_base": 1114,
  "empty_sprite": 1115,
  "barrel_01": 1,
  "barrel_01b": 2,
  "bubble_shield": 3,
  "barrel_02": 4,
  "barrel_03": 5,
  "barrel_04": 6,
  "barrel_05": 7,
  "metal_barrel_02": 8,
  "metal_barrel_03": 9,
  "metal_barrel_side": 10,
  "propane_01": 11,
  "bed_sm_01": 12,
  "bed_lg_01": 13,
  "bollard_01": 14,
  "bookshelf_01": 15,
  "bookshelf_02": 16,
  "bush_01": 17,
  "bush_01b": 18,
  "bush_01cb": 19,
  "bush_01f": 20,
  "bush_01sv": 21,
  "brush_01sv": 22,
  "brush_02sv": 23,
  "bush_01x": 24,
  "bush_02": 25,
  "bush_03": 26,
  "bush_04": 27,
  "bush_10a": 28,
  "bush_10b": 29,
  "bush_10c": 30,
  "bush_10d": 31,
  "bush_11": 32,
  "bush_12": 33,
  "bush_13": 34,
  "bush_13b": 35,
  "bush_13c": 36,
  "bush_04cb": 37,
  "bush_05": 38,
  "bush_06": 39,
  "bush_06b": 40,
  "bush_07": 41,
  "bush_rose": 42,
  "bush_07sp": 43,
  "bush_07x": 44,
  "bush_08": 45,
  "bush_09": 46,
  "bush_14a": 47,
  "bush_14b": 48,
  "case_01": 49,
  "case_02": 50,
  "case_03": 51,
  "case_04": 52,
  "case_05": 53,
  "case_06": 54,
  "case_07": 55,
  "chest_01": 56,
  "chest_01cb": 57,
  "chest_02": 58,
  "chest_03": 59,
  "chest_03cb": 60,
  "chest_03d": 61,
  "chest_03f": 62,
  "chest_03x": 63,
  "chest_03g": 64,
  "chest_03h": 65,
  "chest_03i": 66,
  "chest_04": 67,
  "chest_04d": 68,
  "metal_crane": 69,
  "stair_tower": 70,
  "control_panel_01": 71,
  "control_panel_02": 72,
  "control_panel_02b": 73,
  "control_panel_03": 74,
  "control_panel_04": 75,
  "control_panel_06": 76,
  "switch_01": 77,
  "switch_02": 78,
  "switch_03": 79,
  "couch_01": 80,
  "couch_02": 81,
  "couch_02b": 82,
  "couch_03": 83,
  "crate_01": 86,
  "crate_01x": 87,
  "crate_23": 88,
  "crate_24": 89,
  "easteregg_01": 90,
  "easteregg_02": 91,
  "easteregg_03": 92,
  "easteregg_04": 93,
  "easteregg_05": 94,
  "easteregg_06": 95,
  "frozen_crate": 96,
  "crate_02": 97,
  "crate_02sv": 98,
  "crate_02sv_lake": 99,
  "crate_02x": 100,
  "crate_02a": 101,
  "crate_02f": 102,
  "crate_02d": 103,
  "crate_03": 104,
  "crate_03x": 105,
  "crate_04": 106,
  "crate_05": 107,
  "crate_06": 108,
  "crate_07": 109,
  "crate_07b": 110,
  "crate_07sv": 111,
  "crate_08": 112,
  "crate_09": 113,
  "crate_10": 114,
  "crate_11": 115,
  "crate_11h": 116,
  "crate_10sv": 117,
  "crate_11sv": 118,
  "crate_11de": 119,
  "crate_11tr": 120,
  "crate_12": 121,
  "crate_13": 122,
  "crate_14": 123,
  "crate_14a": 124,
  "crate_15": 125,
  "crate_16": 126,
  "crate_18": 127,
  "crate_19": 128,
  "crate_20": 129,
  "crate_21": 130,
  "crate_21b": 131,
  "crate_22": 132,
  "crate_22d": 133,
  "crate_frenemies": 134,
  "crate_IceBox": 135,
  "crate_egg": 136,
  "crate_Pyre": 137,
  "crate_Pyre_perks": 138,
  "crate_frenemies_metal": 139,
  "metal_crate_small": 140,
  "crate_ship_metal": 141,
  "hitParticle": 142,
  "crate_ship_metal_red": 143,
  "crate_ship_metal_big": 144,
  "crate_02b": 145,
  "airdrop_crate_01": 146,
  "airdrop_crate_02": 147,
  "airdrop_crate_03": 148,
  "airdrop_crate_04": 149,
  "airdrop_crate_01sv": 150,
  "airdrop_crate_02sv": 151,
  "airdrop_crate_02de": 152,
  "airdrop_crate_02h": 153,
  "airdrop_crate_02tr": 154,
  "airdrop_crate_01x": 155,
  "airdrop_crate_02x": 156,
  "class_shell_01": 157,
  "class_shell_02": 158,
  "class_shell_03": 159,
  "class_crate_common_scout": 160,
  "class_crate_common_sniper": 161,
  "class_crate_common_healer": 162,
  "class_crate_common_demo": 163,
  "class_crate_common_assault": 164,
  "class_crate_common_tank": 165,
  "class_crate_rare_scout": 166,
  "class_crate_rare_sniper": 167,
  "class_crate_rare_healer": 168,
  "class_crate_rare_demo": 169,
  "class_crate_rare_assault": 170,
  "class_crate_rare_tank": 171,
  "class_crate_mythic": 172,
  "mil_crate_01": 173,
  "mil_crate_02": 174,
  "mil_crate_03": 175,
  "mil_crate_04": 176,
  "mil_crate_05": 177,
  "bottle_01": 178,
  "bottle_02": 179,
  "bottle_02r": 180,
  "bottle_02o": 181,
  "bottle_02y": 182,
  "bottle_02g": 183,
  "bottle_02b": 184,
  "bottle_02i": 185,
  "bottle_02v": 186,
  "bottle_04": 187,
  "bottle_05": 188,
  "candle_01": 189,
  "deposit_box_01": 190,
  "deposit_box_02": 191,
  "drawers_01": 192,
  "drawers_02": 193,
  "fire_ext_01": 194,
  "grill_01": 195,
  "gun_mount_01": 196,
  "gun_mount_02": 197,
  "gun_mount_03": 198,
  "gun_mount_04": 199,
  "gun_mount_05": 200,
  "locker_01": 201,
  "locker_02": 202,
  "locker_03": 203,
  "oven_01": 204,
  "piano_01": 205,
  "planter_01": 206,
  "planter_02": 207,
  "planter_03": 208,
  "planter_04": 209,
  "planter_06": 210,
  "planter_07": 211,
  "pot_01": 212,
  "pot_02": 213,
  "pot_03": 214,
  "pot_03b": 215,
  "pot_03c": 216,
  "pot_04": 217,
  "pot_05": 218,
  "potato_01": 220,
  "potato_02": 221,
  "potato_03": 222,
  "power_box_01": 223,
  "pumpkin_01": 224,
  "pumpkin_02": 225,
  "pumpkin_03": 226,
  "squash_01": 227,
  "refrigerator_01": 228,
  "refrigerator_01b": 229,
  "recorder_01": 230,
  "recorder_02": 231,
  "recorder_03": 232,
  "recorder_04": 233,
  "recorder_05": 234,
  "recorder_06": 235,
  "recorder_07": 236,
  "recorder_08": 237,
  "recorder_09": 238,
  "recorder_10": 239,
  "recorder_11": 240,
  "recorder_12": 241,
  "recorder_13": 242,
  "recorder_14": 243,
  "screen_01": 244,
  "sandbags_01": 245,
  "sandbags_02": 246,
  "silo_01": 247,
  "silo_01po": 248,
  "stairs_01": 249,
  "stand_01": 250,
  "stone_01": 251,
  "stone_01b": 252,
  "stone_01cb": 253,
  "stone_01f": 254,
  "stone_01sv": 255,
  "stone_01x": 256,
  "stone_02": 257,
  "stone_02sv": 258,
  "stone_03": 259,
  "wave_01": 260,
  "wave_02": 261,
  "wave_03": 262,
  "stone_03b": 263,
  "stone_10": 264,
  "stone_03cb": 265,
  "stone_03f": 266,
  "stone_03x": 267,
  "stone_03p": 268,
  "stone_03g": 269,
  "stone_03h": 270,
  "stone_04": 271,
  "stone_05": 272,
  "stone_06": 273,
  "stone_07": 274,
  "stone_08": 275,
  "stove_01": 276,
  "stove_02": 277,
  "candy_store_vending_soda": 278,
  "food_trash_station": 279,
  "dinner_microvawe_table": 280,
  "dinner_coffee_table": 281,
  "dinner_sinks": 282,
  "dinner_extractor": 283,
  "dinner_fridge": 284,
  "dinner_minicounter": 285,
  "dinner_stove": 286,
  "cloud_01": 287,
  "cloud_02": 288,
  "cloud_03": 289,
  "cloud_04": 290,
  "table_01": 291,
  "table_01x": 292,
  "aim_01": 293,
  "table_02": 294,
  "table_02x": 295,
  "table_03": 296,
  "table_03x": 297,
  "dinner_counter": 298,
  "candy_store_front_desk": 299,
  "candy_store_basket": 300,
  "candy_store_display_01": 301,
  "candy_store_display_02": 302,
  "candy_store_display_03": 303,
  "candy_store_display_04": 304,
  "candy_store_display_05": 305,
  "candy_store_display_06": 306,
  "dinner_table": 307,
  "dinner_couch_01": 308,
  "dinner_couch_02": 309,
  "dinner_couch_03": 310,
  "dinner_table_small": 311,
  "jukebox": 312,
  "dinner_warehouse": 313,
  "dinner_box_01": 314,
  "dinner_box_02": 315,
  "dinner_box_03": 316,
  "dinner_box_04": 317,
  "dinner_chair": 318,
  "tire_01": 319,
  "toilet_01": 320,
  "toilet_02": 321,
  "toilet_02b": 322,
  "toilet_03": 323,
  "toilet_04": 324,
  "toilet_dinner": 325,
  "toilet_dinner_dirty": 326,
  "sink_01": 327,
  "towelrack_01": 328,
  "tree_01": 329,
  "tree_01cb": 330,
  "tree_01sv": 331,
  "tree_interior_01": 332,
  "tree_01x": 333,
  "tree_16": 334,
  "tree_17": 335,
  "tree_18": 336,
  "tree_19": 337,
  "tree_20": 338,
  "tree_02": 339,
  "tree_02h": 340,
  "tree_03": 341,
  "tree_03sv": 342,
  "tree_05": 343,
  "tree_05b": 344,
  "tree_05c": 345,
  "tree_06": 346,
  "tree_07": 347,
  "tree_07sp": 348,
  "tree_07spr": 349,
  "tree_07su": 350,
  "tree_08": 351,
  "tree_08b": 352,
  "tree_08c": 353,
  "tree_08f": 354,
  "tree_08sp": 355,
  "tree_08spb": 356,
  "tree_08spc": 357,
  "tree_08spr": 358,
  "tree_08su": 359,
  "tree_08sub": 360,
  "tree_09": 361,
  "tree_10": 362,
  "tree_11": 363,
  "tree_12": 364,
  "tree_13": 365,
  "tree_14": 366,
  "tree_15": 367,
  "tree_switch_01": 368,
  "tree_switch_02": 369,
  "tree_switch_03": 370,
  "vat_01": 371,
  "vat_02": 372,
  "vending_01": 373,
  "vending_02": 374,
  "wheel_01": 375,
  "wheel_02": 376,
  "wheel_03": 377,
  "woodpile_01": 378,
  "woodpile_02": 379,
  "bank_window_01": 380,
  "house_door_01": 381,
  "candy_store_door": 382,
  "candy_store_door_basement": 383,
  "dinner_door": 384,
  "dinner_back_door": 385,
  "dinner_bathroom_main_door": 386,
  "dinner_toiler_door": 387,
  "dinner_basement_door": 388,
  "freezer_door": 389,
  "house_door_02": 390,
  "house_door_03": 391,
  "house_door_05": 392,
  "house_door_06": 393,
  "crossing_door_01": 394,
  "cell_door_01": 395,
  "eye_door_01": 396,
  "lab_door_01": 397,
  "lab_door_02": 398,
  "lab_door_03": 399,
  "lab_door_locked_01": 400,
  "house_window_01": 401,
  "dinner_window": 402,
  "large_window": 403,
  "house_window_broken_01": 404,
  "lab_window_01": 405,
  "lab_window_broken_01": 406,
  "window_broken_large": 407,
  "window_broken_dinner": 408,
  "container_05_collider": 409,
  "container_05": 410,
  "greenhouse_01": 411,
  "greenhouse_02": 412,
  "bunker_chrys_01": 413,
  "lab_door_chrys": 414,
  "bunker_chrys_sublevel_01": 415,
  "bunker_chrys_sublevel_01b": 416,
  "vault_door_chrys_01": 417,
  "vault_door_chrys_02": 418,
  "bunker_chrys_compartment_01": 419,
  "bunker_chrys_compartment_01b": 420,
  "bunker_chrys_compartment_02": 421,
  "bunker_chrys_compartment_02b": 422,
  "bunker_chrys_compartment_03": 423,
  "bunker_chrys_compartment_03b": 424,
  "bunker_structure_08": 425,
  "bunker_structure_08b": 426,
  "hedgehog_wall": 427,
  "hedgehog_01": 428,
  "cache_01": 429,
  "cache_01sv": 430,
  "cache_02": 431,
  "cache_02sv": 432,
  "cache_03": 433,
  "cache_06": 434,
  "cache_07": 435,
  "cache_log_13": 436,
  "cache_pumpkin_01": 437,
  "cache_pumpkin_02": 438,
  "cache_pumpkin_03": 439,
  "cache_pumpkin_airdrop_02": 440,
  "cache_contact": 441,
  "cache_inferno": 442,
  "candle_lit_01": 443,
  "candle_lit_02": 444,
  "hut_wall_int_4": 445,
  "ice_wall": 446,
  "hut_wall_int_5": 447,
  "hut_wall_int_6": 448,
  "hut_wall_int_12": 449,
  "hut_wall_int_14": 450,
  "hut_window_open_01": 451,
  "hut_01": 452,
  "hut_01x": 453,
  "hut_02": 454,
  "hut_02x": 455,
  "hut_03": 456,
  "warehouse_wall_side": 457,
  "warehouse_wall_edge": 458,
  "warehouse_01": 459,
  "warehouse_01h": 460,
  "warehouse_01f": 461,
  "warehouse_01x": 462,
  "warehouse_02": 463,
  "warehouse_02x": 464,
  "warehouse_complex_01": 465,
  "crop_circle_01": 466,
  "crop_circle_02": 467,
  "crop_circle_03": 468,
  "flamethrower_building": 469,
  "logging_complex_01": 470,
  "logging_complex_01sp": 471,
  "logging_complex_01su": 472,
  "logging_complex_02": 473,
  "logging_complex_02sp": 474,
  "logging_complex_02su": 475,
  "logging_complex_03": 476,
  "junkyard_01": 477,
  "archway_column_1": 478,
  "archway_01": 479,
  "desert_town_01": 480,
  "desert_town_02": 481,
  "statue_01": 482,
  "statue_03": 483,
  "statue_04": 484,
  "statue_top_01": 485,
  "statue_top_02": 486,
  "statue_structure_01": 487,
  "statue_structure_02": 488,
  "statue_building_03": 489,
  "statue_underground_03": 490,
  "statue_structure_03": 491,
  "statue_building_04": 492,
  "statue_underground_04": 493,
  "statue_structure_04": 494,
  "river_town_01": 495,
  "candy_store_n_basement": 496,
  "river_town_02": 497,
  "shack_wall_top": 498,
  "shack_wall_side_left": 499,
  "shack_wall_side_right": 500,
  "shack_wall_bot": 501,
  "shack_01": 502,
  "shack_01x": 503,
  "shack_02": 504,
  "shack_02x": 505,
  "shilo_01": 506,
  "shack_wall_ext_2": 507,
  "shack_wall_ext_5": 508,
  "shack_wall_ext_9": 509,
  "shack_wall_ext_10": 510,
  "shack_wall_ext_14": 511,
  "shack_03a": 512,
  "shack_03b": 513,
  "shack_03x": 514,
  "outhouse_wall_top": 515,
  "outhouse_wall_side": 516,
  "outhouse_wall_bot": 517,
  "outhouse_01": 518,
  "outhouse_01x": 519,
  "outhouse_02": 520,
  "perch_01": 521,
  "brick_wall_ext_1": 522,
  "brick_wall_ext_2": 523,
  "brick_wall_ext_3": 524,
  "brick_wall_ext_4": 525,
  "brick_wall_ext_5": 526,
  "brick_wall_ext_6": 527,
  "brick_wall_ext_7": 528,
  "brick_wall_ext_8": 529,
  "brick_wall_ext_9": 530,
  "brick_wall_ext_10": 531,
  "brick_wall_ext_11": 532,
  "brick_wall_ext_12": 533,
  "brick_wall_ext_12_5": 534,
  "brick_wall_ext_13": 535,
  "brick_wall_ext_14": 536,
  "brick_wall_ext_15": 537,
  "brick_wall_ext_16": 538,
  "brick_wall_ext_17": 539,
  "brick_wall_ext_18": 540,
  "brick_wall_ext_19": 541,
  "brick_wall_ext_20": 542,
  "brick_wall_ext_21": 543,
  "brick_wall_ext_23": 544,
  "brick_wall_ext_33": 545,
  "brick_wall_ext_41": 546,
  "brick_wall_ext_short_7": 547,
  "brick_wall_ext_thicker_4": 548,
  "brick_wall_ext_thicker_5": 549,
  "brick_wall_ext_thicker_6": 550,
  "brick_wall_ext_thicker_7": 551,
  "brick_wall_ext_thicker_8": 552,
  "brick_wall_ext_thicker_9": 553,
  "brick_wall_ext_thicker_15": 554,
  "brick_wall_ext_thicker_16": 555,
  "brick_wall_ext_thicker_24": 556,
  "concrete_wall_ext_thin_6": 557,
  "concrete_wall_ext_1_5": 558,
  "concrete_wall_ext_2": 559,
  "concrete_wall_ext_3": 560,
  "concrete_wall_ext_4": 561,
  "concrete_wall_ext_5": 562,
  "concrete_wall_ext_6": 563,
  "concrete_wall_ext_7": 564,
  "concrete_wall_ext_8": 565,
  "concrete_wall_ext_9": 566,
  "concrete_wall_ext_9_5": 567,
  "concrete_wall_ext_10_5": 568,
  "concrete_wall_ext_11": 569,
  "concrete_wallCandyStore_ext_1": 570,
  "concrete_wallCandyStore_ext_2": 571,
  "concrete_wallCandyStore_ext_3": 572,
  "concrete_wallCandyStore_ext_4": 573,
  "concrete_wallCandyStore_ext_5": 574,
  "concrete_wallCandyStore_ext_6": 575,
  "basement_wallCandyStore_ext_1": 576,
  "basement_wallCandyStore_ext_2": 577,
  "basement_wallCandyStore_ext_3": 578,
  "concrete_wallDinner_ext_1": 579,
  "concrete_wallDinner_ext_2": 580,
  "concrete_wallDinner_ext_3": 581,
  "concrete_wallDinner_ext_4": 582,
  "concrete_wallDinner_ext_5": 583,
  "concrete_wallDinner_ext_6": 584,
  "concrete_wallDinner_ext_7": 585,
  "concrete_wallDinner_ext_8": 586,
  "concrete_wallDinner_ext_9": 587,
  "concrete_wallDinner_ext_10": 588,
  "concrete_wallDinner_ext_11": 589,
  "concrete_wallDinner_ext_12": 590,
  "basement_wallDinner_ext_1": 591,
  "basement_wallDinner_ext_2": 592,
  "basement_wallDinner_ext_3": 593,
  "basement_wallDinner_ext_4": 594,
  "basement_freezer_wall_01": 595,
  "metal_wall_ship_01": 596,
  "metal_wall_ship_02": 597,
  "metal_wall_ship_03": 598,
  "metal_wall_ship_04": 599,
  "metal_wall_ship_05": 600,
  "metal_wall_ship_06": 601,
  "metal_wall_ship_07": 602,
  "metal_wall_ship_08": 603,
  "metal_wall_ship_09": 604,
  "metal_wall_ship_10": 605,
  "metal_wall_ship_11": 606,
  "metal_wall_ship_12": 607,
  "metal_wall_ship_13": 608,
  "metal_wall_ship_14": 609,
  "metal_wall_ship_15": 610,
  "metal_wall_ship_16": 611,
  "metal_wall_ship_17": 612,
  "metal_wall_ship_18": 613,
  "metal_wall_ship_19": 614,
  "concrete_wall_ext_11_5": 615,
  "concrete_wall_ext_13": 616,
  "concrete_wall_ext_14": 617,
  "concrete_wall_ext_15": 618,
  "concrete_wall_ext_16": 619,
  "concrete_wall_ext_17": 620,
  "concrete_wall_ext_23": 621,
  "concrete_wall_ext_24": 622,
  "concrete_wall_ext_25": 623,
  "concrete_wall_column_4x8": 624,
  "concrete_wall_column_4x9": 625,
  "concrete_wall_column_4x24": 626,
  "concrete_wall_column_5x10": 627,
  "concrete_wall_column_7x10": 628,
  "concrete_wall_ext_thick_11": 629,
  "concrete_wall_ext_thicker_4": 630,
  "concrete_wall_ext_thicker_5": 631,
  "concrete_wall_ext_thicker_6": 632,
  "concrete_wall_ext_thicker_8": 633,
  "concrete_wall_ext_thicker_9": 634,
  "concrete_wall_ext_thicker_10": 635,
  "concrete_wall_ext_thicker_11": 636,
  "concrete_wall_ext_thicker_12": 637,
  "concrete_wall_ext_thicker_13": 638,
  "concrete_wall_ext_thicker_14": 639,
  "concrete_wall_ext_thicker_15": 640,
  "concrete_wall_ext_thicker_17": 641,
  "concrete_wall_ext_thicker_19": 642,
  "concrete_wall_ext_thicker_21": 643,
  "concrete_wall_ext_thicker_22": 644,
  "concrete_wall_ext_thicker_27": 645,
  "concrete_wall_ext_thicker_30": 646,
  "concrete_wall_ext_thicker_31": 647,
  "concrete_wall_ext_thicker_42": 648,
  "concrete_wall_ext_thicker_54": 649,
  "metal_wall_ext_3": 650,
  "metal_wall_ext_4": 651,
  "metal_wall_ext_5": 652,
  "metal_wall_ext_6": 653,
  "metal_wall_ext_7": 654,
  "metal_wall_ext_8": 655,
  "metal_wall_ext_9": 656,
  "metal_wall_ext_10": 657,
  "metal_wall_ext_12": 658,
  "metal_wall_ext_12_5": 659,
  "metal_wall_ext_13": 660,
  "metal_wall_ext_18": 661,
  "metal_wall_ext_23": 662,
  "metal_wall_ext_43": 663,
  "metal_wall_ext_short_6": 664,
  "metal_wall_ext_short_7": 665,
  "metal_wall_ext_thick_6": 666,
  "metal_wall_ext_thick_12": 667,
  "metal_wall_ext_thick_20": 668,
  "metal_wall_ext_thicker_4": 669,
  "metal_wall_ext_thicker_5": 670,
  "metal_wall_ext_thicker_6": 671,
  "metal_wall_ext_thicker_7": 672,
  "metal_wall_ext_thicker_8": 673,
  "metal_wall_ext_thicker_9": 674,
  "metal_wall_ext_thicker_10": 675,
  "metal_wall_ext_thicker_11": 676,
  "metal_wall_ext_thicker_12": 677,
  "metal_wall_ext_thicker_13": 678,
  "metal_wall_ext_thicker_14": 679,
  "metal_wall_ext_thicker_15": 680,
  "metal_wall_ext_thicker_16": 681,
  "metal_wall_ext_thicker_17": 682,
  "metal_wall_ext_thicker_18": 683,
  "metal_wall_ext_thicker_19": 684,
  "metal_wall_ext_thicker_20": 685,
  "metal_wall_ext_thicker_21": 686,
  "metal_wall_ext_thicker_22": 687,
  "metal_wall_ext_thicker_23": 688,
  "metal_wall_ext_thicker_24": 689,
  "metal_wall_ext_thicker_25": 690,
  "metal_wall_ext_thicker_26": 691,
  "metal_wall_ext_thicker_27": 692,
  "metal_wall_ext_thicker_28": 693,
  "metal_wall_ext_thicker_29": 694,
  "metal_wall_ext_thicker_32": 695,
  "metal_wall_ext_thicker_34": 696,
  "metal_wall_ext_thicker_35": 697,
  "metal_wall_ext_thicker_42": 698,
  "metal_wall_ext_thicker_48": 699,
  "glass_wall_9": 700,
  "glass_wall_10": 701,
  "glass_wall_12": 702,
  "glass_wall_12_2": 703,
  "glass_wall_18": 704,
  "panicroom_01": 705,
  "barn_basement_stairs_01": 706,
  "barn_basement_floor_01": 707,
  "barn_basement_floor_01d": 708,
  "barn_basement_floor_02": 709,
  "barn_basement_floor_02d": 710,
  "barn_basement_structure_01": 711,
  "barn_basement_structure_01d": 712,
  "barn_wall_int_2": 713,
  "barn_wall_int_2_5": 714,
  "barn_wall_int_4": 715,
  "barn_wall_int_5": 716,
  "barn_wall_int_6": 717,
  "barn_wall_int_7": 718,
  "barn_wall_int_8": 719,
  "barn_wall_int_11": 720,
  "barn_wall_int_13": 721,
  "barn_column_1": 722,
  "barn_01": 723,
  "barn_01h": 724,
  "barn_01x": 725,
  "barn_02": 726,
  "barn_02d": 727,
  "bank_wall_int_3": 728,
  "bank_wall_int_4": 729,
  "bank_wall_int_5": 730,
  "bank_wall_int_8": 731,
  "candy_store_01": 732,
  "candy_store_basement": 733,
  "bank_01": 734,
  "bank_01b": 735,
  "bank_01x": 736,
  "vault_door_main": 737,
  "vault_01": 738,
  "vault_01b": 739,
  "police_wall_int_2": 740,
  "police_wall_int_3": 741,
  "police_wall_int_4": 742,
  "police_wall_int_6": 743,
  "police_wall_int_7": 744,
  "police_wall_int_8": 745,
  "police_wall_int_10": 746,
  "police_01": 747,
  "police_01x": 748,
  "house_wall_int_4": 749,
  "house_wall_int_5": 750,
  "house_wall_int_8": 751,
  "house_wall_int_9": 752,
  "house_wall_int_11": 753,
  "house_wall_int_14": 754,
  "house_column_1": 755,
  "house_red_01": 756,
  "house_red_01h": 757,
  "house_red_01x": 758,
  "house_red_02": 759,
  "house_red_02h": 760,
  "house_red_02x": 761,
  "cabin_wall_int_5": 762,
  "cabin_wall_int_10": 763,
  "cabin_wall_int_13": 764,
  "cabin_01": 765,
  "cabin_01x": 766,
  "cabin_02": 767,
  "dock_01": 768,
  "mansion_wall_int_1": 769,
  "mansion_wall_int_5": 770,
  "mansion_wall_int_6": 771,
  "mansion_wall_int_7": 772,
  "mansion_wall_int_8": 773,
  "mansion_wall_int_9": 774,
  "mansion_wall_int_10": 775,
  "mansion_wall_int_11": 776,
  "mansion_wall_int_12": 777,
  "mansion_wall_int_13": 778,
  "mansion_column_1": 779,
  "saferoom_01": 780,
  "mansion_01": 781,
  "mansion_01x": 782,
  "mansion_02": 783,
  "mansion_cellar_01": 784,
  "mansion_cellar_02": 785,
  "mansion_structure_01": 786,
  "mansion_structure_02": 787,
  "saloon_column_1": 788,
  "saloon_bar_small": 789,
  "saloon_bar_large": 790,
  "saloon_bar_back_large": 791,
  "saloon_bar_back_small": 792,
  "saloon_door_secret": 793,
  "wood_perm_wall_ext_5": 794,
  "wood_perm_wall_ext_6": 795,
  "wood_perm_wall_ext_7": 796,
  "wood_perm_wall_ext_14": 797,
  "wood_perm_wall_ext_17": 798,
  "wood_perm_wall_ext_35": 799,
  "wood_perm_wall_ext_thicker_6": 800,
  "wood_perm_wall_ext_thicker_7": 801,
  "wood_perm_wall_ext_thicker_8": 802,
  "wood_perm_wall_ext_thicker_10": 803,
  "wood_perm_wall_ext_thicker_12": 804,
  "wood_perm_wall_ext_thicker_13": 805,
  "wood_perm_wall_ext_thicker_18": 806,
  "wood_perm_wall_ext_thicker_21": 807,
  "saloon_01": 808,
  "saloon_cellar_01": 809,
  "saloon_structure_01": 810,
  "teahouse_wall_int_3": 811,
  "teahouse_wall_int_4": 812,
  "teahouse_wall_int_5": 813,
  "teahouse_wall_int_7": 814,
  "teahouse_wall_int_12": 815,
  "teahouse_wall_int_13": 816,
  "teahouse_wall_int_14": 817,
  "teahouse_wall_int_18": 818,
  "teahouse_door_01": 819,
  "teahouse_window_open_01": 820,
  "teahouse_01": 821,
  "teapavilion_01": 822,
  "teapavilion_01w": 823,
  "teahouse_complex_01s": 824,
  "teahouse_complex_01su": 825,
  "teahouse_complex_01_space": 826,
  "teahouse_complex_01_ice": 827,
  "savannah_patch_01": 828,
  "kopje_patch_01": 829,
  "kopje_brush_01": 830,
  "grassy_wall_3": 831,
  "grassy_wall_8": 832,
  "grassy_cover_01": 833,
  "grassy_cover_02": 834,
  "grassy_cover_03": 835,
  "grassy_cover_complex_01": 836,
  "brush_clump_01": 837,
  "brush_clump_02": 838,
  "brush_clump_03": 839,
  "teapavilion_complex_01": 840,
  "club_wall_int_6": 841,
  "club_wall_int_10": 842,
  "club_bar_small": 843,
  "club_bar_large": 844,
  "club_bar_back_large": 845,
  "secret_door_club": 846,
  "bathhouse_column_1": 847,
  "bathhouse_column_2": 848,
  "bathhouse_rocks_01": 849,
  "vault_door_bathhouse": 850,
  "club_01": 851,
  "bathhouse_01": 852,
  "bathhouse_sideroom_01": 853,
  "bathhouse_sideroom_02": 854,
  "club_window_01": 855,
  "club_window_broken_01": 856,
  "club_vault": 857,
  "freezer": 858,
  "club_structure_01": 859,
  "club_complex_01": 860,
  "bunker_egg_01": 861,
  "bunker_egg_sublevel_01": 862,
  "bunker_egg_sublevel_02": 863,
  "bunker_egg_sublevel_03": 864,
  "bunker_egg_sublevel_01sv": 865,
  "bunker_structure_01": 866,
  "bunker_structure_01_c": 867,
  "bunker_structure_01b": 868,
  "bunker_structure_01sv": 869,
  "bunker_hydra_01": 870,
  "bunker_hydra_sublevel_01": 871,
  "bunker_hydra_compartment_01": 872,
  "metal_wall_column_5x12": 873,
  "bunker_hydra_compartment_02": 874,
  "bunker_hydra_compartment_03": 875,
  "bunker_structure_02": 876,
  "bunker_storm_01": 877,
  "bunker_storm_sublevel_01": 878,
  "bunker_structure_03": 879,
  "bunker_conch_01": 880,
  "bunker_conch_sublevel_01": 881,
  "bunker_conch_sublevel_03": 882,
  "bunker_conch_sublevel_04": 883,
  "bunker_conch_sublevel_05": 884,
  "bunker_conch_compartment_01": 885,
  "bunker_conch_compartment_03": 886,
  "bunker_conch_compartment_04": 887,
  "bunker_conch_compartment_05": 888,
  "bunker_structure_04": 889,
  "bunker_structure_04b": 890,
  "bunker_structure_04c": 891,
  "bunker_structure_04d": 892,
  "bunker_crossing_stairs_01": 893,
  "bunker_crossing_stairs_01b": 894,
  "bunker_crossing_01": 895,
  "bunker_crossing_02": 896,
  "bunker_crossing_03": 897,
  "bunker_crossing_04": 898,
  "bunker_crossing_05": 899,
  "bunker_crossing_sublevel_01": 900,
  "bunker_crossing_sublevel_01b": 901,
  "bunker_crossing_sublevel_01c": 902,
  "bunker_crossing_sublevel_01d": 903,
  "bunker_crossing_bathroom": 904,
  "bunker_crossing_compartment_01": 905,
  "bunker_crossing_compartment_01b": 906,
  "bunker_crossing_compartment_01c": 907,
  "bunker_crossing_compartment_01d": 908,
  "bunker_structure_05": 909,
  "bunker_structure_05b": 910,
  "bunker_structure_05c": 911,
  "bunker_structure_05d": 912,
  "bunker_hatchet_01": 913,
  "bunker_hatchet_sublevel_01": 914,
  "bunker_hatchet_compartment_01": 915,
  "bunker_hatchet_compartment_02": 916,
  "bunker_hatchet_compartment_03": 917,
  "bunker_structure_06": 918,
  "bunker_eye_01": 919,
  "vault_door_eye": 920,
  "metal_wall_column_4x8": 921,
  "stone_wall_int_4": 922,
  "bunker_eye_sublevel_01": 923,
  "bunker_eye_compartment_01": 924,
  "bunker_structure_07": 925,
  "bunker_twins_stairs_01": 926,
  "bunker_twins_01": 927,
  "cobalt_wall_int_4": 928,
  "bunker_twins_sublevel_01": 929,
  "bunker_twins_compartment_01": 930,
  "bunker_structure_09": 931,
  "bridge_lg_under_column": 932,
  "concrete_wall_column_5x4": 933,
  "bridge_rail_3": 934,
  "bridge_rail_12": 935,
  "bridge_lg_01": 936,
  "bridge_lg_01x": 937,
  "container_07_ship": 938,
  "container_08_ship": 939,
  "container_09_ship": 940,
  "bridge_lg_under_01": 941,
  "bridge_lg_structure_01": 942,
  "bridge_xlg_under_column": 943,
  "concrete_wall_column_9x4": 944,
  "bridge_rail_20": 945,
  "bridge_xlg_01": 946,
  "bridge_xlg_under_01": 947,
  "bridge_xlg_structure_01": 948,
  "bridge_rail_28": 949,
  "brick_wall_ext_3_0_low": 950,
  "brick_wall_ext_11_5": 951,
  "bridge_md_01": 952,
  "bridge_md_burned": 953,
  "bridge_md_under_01": 954,
  "bridge_md_structure_01": 955,
  "bridge_md_structure_burned": 956,
  "container_wall_top": 957,
  "container_wall_side": 958,
  "container_wall_side_open": 959,
  "broken_container_wall_top": 960,
  "broken_container_wall_side_long": 961,
  "broken_container_wall_side_short": 962,
  "broken_container_wall_bottom": 963,
  "container_01": 964,
  "container_02": 965,
  "container_03": 966,
  "container_04": 967,
  "container_01x": 968,
  "container_06": 969,
  "broken_container_01": 970,
  "loot_tier_1": 971,
  "loot_tier_2": 972,
  "loot_tier_beach": 973,
  "loot_tier_surviv": 974,
  "loot_tier_vault_floor": 975,
  "loot_tier_police_floor": 976,
  "loot_tier_mansion_floor": 977,
  "loot_tier_sv98": 978,
  "loot_tier_scopes_sniper": 979,
  "loot_tier_woodaxe": 980,
  "loot_tier_fireaxe": 981,
  "loot_tier_stonehammer": 982,
  "loot_tier_sledgehammer": 983,
  "loot_tier_hatchet_melee": 984,
  "loot_tier_club_melee": 985,
  "loot_tier_leaf_pile": 986,
  "loot_tier_islander_outfit": 987,
  "loot_tier_verde_outfit": 988,
  "loot_tier_lumber_outfit": 989,
  "loot_tier_imperial_outfit": 990,
  "loot_tier_pineapple_outfit": 991,
  "loot_tier_tarkhany_outfit": 992,
  "loot_tier_spetsnaz_outfit": 993,
  "loot_tier_eye_01": 994,
  "loot_tier_eye_02": 995,
  "loot_tier_saloon": 996,
  "loot_tier_chrys_01": 997,
  "loot_tier_chrys_02": 998,
  "loot_tier_chrys_02b": 999,
  "loot_tier_chrys_03": 1000,
  "loot_tier_airdrop_armor": 1001,
  "loot_tier_helmet_forest": 1002,
  "loot_tier_helmet_potato": 1003,
  "loot_tier_perk_test": 1004,
  "loot_tier_sniper_test": 1005,
  "loot_tier_loot_test": 1006,
  "loot_tier_inferno_flamethrower": 1007,
  "decal_barrel_explosion": 1008,
  "decal_frag_explosion": 1009,
  "decal_frag_small_explosion": 1010,
  "decal_rounds_explosion": 1011,
  "decal_bomb_iron_explosion": 1012,
  "decal_lightning_explosion": 1013,
  "decal_smoke_explosion": 1014,
  "decal_snowball_explosion": 1015,
  "decal_foot_print_01": 1016,
  "decal_foot_print_02": 1017,
  "decal_potato_explosion": 1018,
  "decal_heart_explosion": 1019,
  "decal_vent_01": 1020,
  "decal_vent_02": 1021,
  "decal_vent_03": 1022,
  "decal_hydra_01": 1023,
  "decal_pipes_01": 1024,
  "decal_pipes_02": 1025,
  "decal_pipes_03": 1026,
  "decal_pipes_04": 1027,
  "decal_pipes_05": 1028,
  "decal_initiative_01": 1029,
  "decal_web_01": 1030,
  "decal_light_01": 1031,
  "decal_light_02": 1032,
  "decal_light_03": 1033,
  "decal_light_04": 1034,
  "decal_blood_01": 1035,
  "decal_blood_02": 1036,
  "decal_blood_03": 1037,
  "decal_chrys_01": 1038,
  "decal_oil_01": 1039,
  "decal_oil_02": 1040,
  "decal_oil_03": 1041,
  "decal_oil_04": 1042,
  "decal_oil_05": 1043,
  "decal_oil_06": 1044,
  "decal_bathhouse_pool_01": 1045,
  "decal_club_01": 1046,
  "decal_club_02": 1047,
  "decal_plank_01": 1048,
  "decal_flyer_01": 1049,
  "bunker_conch_sublevel_02": 1050,
  "bunker_conch_compartment_02": 1051,
  "bunker_structure_04_ice": 1052,
  "bunker_crossing_sublevel_02": 1053,
  "bunker_crossing_compartment_02": 1054,
  "bunker_structure_05_ice": 1055
}
